<?xml version="1.0" encoding="UTF-8" standalone="no"?>
<!-- Created with Inkscape (http://www.inkscape.org/) -->

<svg
   xmlns:dc="http://purl.org/dc/elements/1.1/"
   xmlns:cc="http://creativecommons.org/ns#"
   xmlns:rdf="http://www.w3.org/1999/02/22-rdf-syntax-ns#"
   xmlns:svg="http://www.w3.org/2000/svg"
   xmlns="http://www.w3.org/2000/svg"
   xmlns:sodipodi="http://sodipodi.sourceforge.net/DTD/sodipodi-0.dtd"
   xmlns:inkscape="http://www.inkscape.org/namespaces/inkscape"
   width="86"
   height="54"
   viewBox="0 0 86 54"
   version="1.1"
   id="svg8"
   inkscape:version="0.92.2 2405546, 2018-03-11"
   sodipodi:docname="card.svg"
   inkscape:export-filename="/mnt/files/files/temp/bitmap.png"
   inkscape:export-xdpi="4800"
   inkscape:export-ydpi="4800">
  <defs
     id="defs2" />
  <sodipodi:namedview
     id="base"
     pagecolor="#ffffff"
     bordercolor="#666666"
     borderopacity="1.0"
     inkscape:pageopacity="0.0"
     inkscape:pageshadow="2"
     inkscape:zoom="5.6568542"
     inkscape:cx="115.11275"
     inkscape:cy="16.276525"
     inkscape:document-units="px"
     inkscape:current-layer="layer1"
     showgrid="false"
     units="px"
     borderlayer="true"
     inkscape:window-width="1920"
     inkscape:window-height="1051"
     inkscape:window-x="0"
     inkscape:window-y="29"
     inkscape:window-maximized="1">
    <inkscape:grid
       type="xygrid"
       id="grid815" />
  </sodipodi:namedview>
  <metadata
     id="metadata5">
    <rdf:RDF>
      <cc:Work
         rdf:about="">
        <dc:format>image/svg+xml</dc:format>
        <dc:type
           rdf:resource="http://purl.org/dc/dcmitype/StillImage" />
        <dc:title></dc:title>
      </cc:Work>
    </rdf:RDF>
  </metadata>
  <g
     inkscape:label="Layer 1"
     inkscape:groupmode="layer"
     id="layer1"
     transform="translate(0,-266.5333)">
    <rect
       style="opacity:1;fill:#3c1700;fill-opacity:1;stroke:none;stroke-width:1;stroke-linecap:square;stroke-linejoin:miter;stroke-miterlimit:4;stroke-dasharray:none;stroke-dashoffset:0;stroke-opacity:1"
       id="rect2062"
       width="86"
       height="54"
       x="0"
       y="266.53329" />
    <path
       style="opacity:1;fill:#ff3500;fill-opacity:1;stroke:none;stroke-width:4.24263716;stroke-linecap:square;stroke-linejoin:miter;stroke-miterlimit:4;stroke-dasharray:none;stroke-dashoffset:0;stroke-opacity:1"
       d="m 26.335938,266.5333 c -5.597103,13.63929 -9.4857,28.18645 -10.962891,44.01367 9.706487,4.44406 19.559262,7.71799 29.537109,9.98633 H 65.974609 C 72.715971,304.94627 76.133727,289.66308 77.726562,274.54697 70.577461,271.2835 63.30997,268.62604 55.931641,266.5333 Z"
       id="path3100"
       inkscape:connector-curvature="0" />
    <path
       style="opacity:1;fill:#ff7e00;fill-opacity:1;stroke:none;stroke-width:4.24263716;stroke-linecap:square;stroke-linejoin:miter;stroke-miterlimit:4;stroke-dasharray:none;stroke-dashoffset:0;stroke-opacity:1"
       d="m 37.185547,266.5333 c -7.457762,2.12539 -14.726995,4.80242 -21.8125,8.01367 1.572183,15.41182 5.18773,30.75165 11.759765,45.98633 h 21.140626 c 10.228776,-2.35623 20.026195,-5.73097 29.453124,-9.98633 -1.491964,-16.2005 -5.496153,-30.62664 -10.972656,-44.01367 z"
       id="path3102"
       inkscape:connector-curvature="0" />
    <path
       style="opacity:1;fill:#ffba00;fill-opacity:1;stroke:none;stroke-width:4.24263716;stroke-linecap:square;stroke-linejoin:miter;stroke-miterlimit:4;stroke-dasharray:none;stroke-dashoffset:0;stroke-opacity:1"
       d="m 0,266.5333 v 54 H 36.289062 54 56.875 C 67.002235,311.92841 75.322757,302.48981 82.550781,292.54697 75.637509,282.84199 67.798595,274.19857 59.107422,266.5333 H 54 34.017578 Z"
       id="path3104"
       inkscape:connector-curvature="0"
       sodipodi:nodetypes="cccccccccc" />
    <text
       xml:space="preserve"
       style="font-style:normal;font-weight:normal;font-size:48.0424118px;line-height:1.25;font-family:sans-serif;letter-spacing:0px;word-spacing:0px;fill:#000000;fill-opacity:1;stroke:none;stroke-width:1.2010603"
       x="-6.6298337"
       y="327.16296"
       id="text3543"><tspan
         sodipodi:role="line"
         id="tspan3541"
         x="-6.6298337"
         y="369.66925"
         style="stroke-width:1.2010603" /><tspan
         sodipodi:role="line"
         x="-6.6298337"
         y="429.72226"
         id="tspan3545"
         style="stroke-width:1.2010603" /></text>
    <circle
       style="opacity:1;fill:#fff3d5;fill-opacity:1;stroke:none;stroke-width:0.52173913;stroke-linecap:square;stroke-linejoin:miter;stroke-miterlimit:4;stroke-dasharray:none;stroke-dashoffset:0;stroke-opacity:1"
       id="path2869"
       cx="34"
       cy="293.53329"
       r="24" />
    <circle
       style="opacity:1;fill:#3c1700;fill-opacity:1;stroke:none;stroke-width:0.15013254;stroke-linecap:round;stroke-linejoin:miter;stroke-miterlimit:4;stroke-dasharray:none;stroke-dashoffset:0;stroke-opacity:1"
       id="path3852"
       cx="33.999863"
       cy="293.53329"
       r="7.2063622" />
    <path
       style="opacity:1;fill:#ff8500;fill-opacity:1;stroke:none;stroke-width:0.15013254;stroke-linecap:round;stroke-linejoin:round;stroke-miterlimit:4;stroke-dasharray:none;stroke-dashoffset:0;stroke-opacity:1"
       d="m 33.999855,273.15046 c -3.427202,6.76202 -8.115613,12.42696 -14.311859,16.77965 h 6.727824 a 8.4074224,8.4074224 0 0 1 7.584035,-4.80424 8.4074224,8.4074224 0 0 1 7.58639,4.80424 h 6.713735 c -6.024003,-4.23472 -10.775217,-9.83487 -14.300125,-16.77965 z m -14.354076,23.98602 c 6.010226,4.20862 10.862534,9.72653 14.354076,16.77965 3.432174,-6.78915 8.138685,-12.44102 14.316543,-16.77965 H 41.58389 a 8.4074224,8.4074224 0 0 1 -7.584035,4.80424 8.4074224,8.4074224 0 0 1 -7.586389,-4.80424 z"
       id="path3784"
       inkscape:connector-curvature="0" />
    <path
       style="opacity:1;fill:#ffba00;fill-opacity:1;stroke:none;stroke-width:0.15013254;stroke-linecap:round;stroke-linejoin:round;stroke-miterlimit:4;stroke-dasharray:none;stroke-dashoffset:0;stroke-opacity:1"
       d="m 26.200001,274.70104 c -0.409898,5.35483 -1.618777,10.44354 -3.727515,15.22907 h 3.943334 a 8.4074224,8.4074224 0 0 1 7.584035,-4.80424 8.4074224,8.4074224 0 0 1 7.58639,4.80424 h 7.980481 c 0.990647,-1.43322 2.074111,-2.8335 3.265383,-4.19667 -10.001614,-0.65215 -18.851603,-4.36621 -26.632108,-11.0324 z m -7.762321,22.43544 c -0.990214,1.43226 -2.076333,2.83261 -3.270079,4.19667 9.886384,0.74969 18.837022,4.21725 26.632108,11.0324 0.40537,-5.36854 1.620879,-10.4546 3.727515,-15.22907 H 41.58389 a 8.4074224,8.4074224 0 0 1 -7.584035,4.80424 8.4074224,8.4074224 0 0 1 -7.586389,-4.80424 z"
       id="path3786"
       inkscape:connector-curvature="0" />
    <path
       style="opacity:1;fill:#ff6400;fill-opacity:1;stroke:none;stroke-width:0.15013254;stroke-linecap:round;stroke-linejoin:round;stroke-miterlimit:4;stroke-dasharray:none;stroke-dashoffset:0;stroke-opacity:1"
       d="m 19.587131,279.12057 c 1.169677,3.57384 1.928927,7.17608 2.240254,10.80954 h 4.588435 a 8.4074224,8.4074224 0 0 1 7.584035,-4.80424 8.4074224,8.4074224 0 0 1 7.58639,4.80424 h 4.567308 c 0.291773,-3.57701 1.033836,-7.1795 2.259026,-10.80954 -9.489866,3.22493 -19.08617,3.18129 -28.825448,0 z m 2.256684,18.01591 c -0.289996,3.57124 -1.026462,7.17298 -2.256684,10.80954 9.420721,-3.09074 19.01568,-3.31334 28.825448,0 -1.175394,-3.57881 -1.933275,-7.18153 -2.242608,-10.80954 H 41.58389 a 8.4074224,8.4074224 0 0 1 -7.584035,4.80424 8.4074224,8.4074224 0 0 1 -7.586389,-4.80424 z"
       id="path3788"
       inkscape:connector-curvature="0" />
    <path
       style="opacity:1;fill:#ffcc00;fill-opacity:1;stroke:none;stroke-width:0.15013254;stroke-linecap:round;stroke-linejoin:round;stroke-miterlimit:4;stroke-dasharray:none;stroke-dashoffset:0;stroke-opacity:1"
       d="m 41.799709,274.70104 c -7.533363,6.61107 -16.416765,10.24446 -26.632108,11.0324 1.163612,1.35651 2.243149,2.75574 3.23723,4.19667 h 8.010989 a 8.4074224,8.4074224 0 0 1 7.584035,-4.80424 8.4074224,8.4074224 0 0 1 7.58639,4.80424 h 3.950359 c -2.086194,-4.67052 -3.366896,-9.73069 -3.736895,-15.22907 z m -19.336603,22.43544 c 2.083648,4.6587 3.369755,9.71553 3.736895,15.22907 7.520836,-6.46061 16.301091,-10.33949 26.632108,-11.0324 -1.16617,-1.35667 -2.245983,-2.75676 -3.239584,-4.19667 H 41.58389 a 8.4074224,8.4074224 0 0 1 -7.584035,4.80424 8.4074224,8.4074224 0 0 1 -7.586389,-4.80424 z"
       id="path3790"
       inkscape:connector-curvature="0" />
    <text
       id="text3796"
       y="295.68423"
       x="33.948654"
       style="font-style:normal;font-weight:normal;font-size:48.0424118px;line-height:1.25;font-family:sans-serif;letter-spacing:0px;word-spacing:0px;fill:#ff6400;fill-opacity:1;stroke:none;stroke-width:0.15013254;stroke-miterlimit:4;stroke-dasharray:none;stroke-opacity:1"
       xml:space="preserve"><tspan
         id="tspan3794"
         style="font-style:normal;font-variant:normal;font-weight:bold;font-stretch:normal;font-size:6.40565538px;line-height:0px;font-family:Ubuntu;-inkscape-font-specification:'Ubuntu Bold';text-align:center;writing-mode:lr-tb;direction:ltr;baseline-shift:baseline;text-anchor:middle;fill:#ff6400;fill-opacity:1;stroke:none;stroke-width:0.15013254;stroke-miterlimit:4;stroke-dasharray:none;stroke-opacity:1"
         y="295.68423"
         x="33.948654"
         sodipodi:role="line">SUNFLOWER</tspan></text>
    <rect
       y="266.53329"
       x="91"
       height="54"
       width="86"
       id="rect2952"
       style="opacity:1;fill:#ffba00;fill-opacity:1;stroke:none;stroke-width:1;stroke-linecap:square;stroke-linejoin:miter;stroke-miterlimit:4;stroke-dasharray:none;stroke-dashoffset:0;stroke-opacity:1" />
    <g
       id="g3206">
      <rect
         ry="4.875"
         y="306.78329"
         x="150"
         height="9.75"
         width="23.25"
         id="rect2800"
         style="opacity:1;fill:#3c1700;fill-opacity:1;stroke:none;stroke-width:0.38771546;stroke-linecap:square;stroke-linejoin:miter;stroke-miterlimit:4;stroke-dasharray:none;stroke-dashoffset:0;stroke-opacity:1" />
      <path
         style="opacity:1;fill:#ff3500;fill-opacity:1;stroke:none;stroke-width:0.43301278;stroke-linecap:square;stroke-linejoin:miter;stroke-miterlimit:4;stroke-dasharray:none;stroke-dashoffset:0;stroke-opacity:1"
         d="m 151.34278,310.73 c 1.34172,-1.10136 2.83534,-1.97688 4.5,-2.59808 1.04246,1.28804 1.9484,2.74009 2.59807,4.5 -1.32814,1.08686 -2.81399,1.97107 -4.5,2.59808 -1.16737,-1.40771 -1.9967,-2.91894 -2.59807,-4.5 z"
         id="path2751"
         inkscape:connector-curvature="0"
         sodipodi:nodetypes="ccccc" />
      <path
         sodipodi:nodetypes="ccccc"
         inkscape:connector-curvature="0"
         id="path2753"
         d="m 151.34278,312.63192 c 0.61129,-1.62466 1.46704,-3.12969 2.59807,-4.5 1.54682,0.59424 3.05741,1.39879 4.5,2.59808 -0.60677,1.60532 -1.45145,3.11399 -2.59807,4.5 -1.71483,-0.63542 -3.18867,-1.52952 -4.5,-2.59808 z"
         style="opacity:1;fill:#ff7e00;fill-opacity:1;stroke:none;stroke-width:0.43301278;stroke-linecap:square;stroke-linejoin:miter;stroke-miterlimit:4;stroke-dasharray:none;stroke-dashoffset:0;stroke-opacity:1" />
      <path
         sodipodi:nodetypes="ccccc"
         inkscape:connector-curvature="0"
         id="rect2748"
         d="m 152.29374,309.08287 c 1.71265,-0.28294 3.44392,-0.29436 5.19616,0 0.25877,1.6367 0.31732,3.34719 0,5.19616 -1.69365,0.27717 -3.42253,0.29999 -5.19616,0 -0.30712,-1.8028 -0.26972,-3.52623 0,-5.19616 z"
         style="opacity:1;fill:#ffba00;fill-opacity:1;stroke:none;stroke-width:0.43301278;stroke-linecap:square;stroke-linejoin:miter;stroke-miterlimit:4;stroke-dasharray:none;stroke-dashoffset:0;stroke-opacity:1" />
      <text
         id="text2762"
         y="312.86377"
         x="159.11485"
         style="font-style:normal;font-weight:normal;font-size:8.66025543px;line-height:1.25;font-family:sans-serif;letter-spacing:0px;word-spacing:0px;fill:#ffba00;fill-opacity:1;stroke:none;stroke-width:0.21650639;"
         xml:space="preserve"><tspan
           style="font-style:normal;font-variant:normal;font-weight:bold;font-stretch:normal;font-size:5.77350378px;font-family:Ubuntu;-inkscape-font-specification:'Ubuntu Bold';fill:#ffba00;fill-opacity:1;stroke-width:0.21650639;"
           y="312.86377"
           x="159.11485"
           id="tspan2760"
           sodipodi:role="line">SUN</tspan></text>
      <text
         xml:space="preserve"
         style="font-style:normal;font-weight:normal;font-size:8.66025543px;line-height:1.25;font-family:sans-serif;letter-spacing:0px;word-spacing:0px;fill:#ff3500;fill-opacity:1;stroke:none;stroke-width:0.21650639;"
         x="159.14372"
         y="315.09369"
         id="text2766"><tspan
           sodipodi:role="line"
           id="tspan2764"
           x="159.14372"
           y="315.09369"
           style="font-style:normal;font-variant:normal;font-weight:bold;font-stretch:normal;font-size:2.30940151px;font-family:Ubuntu;-inkscape-font-specification:'Ubuntu Bold';fill:#ff3500;fill-opacity:1;stroke-width:0.21650639;">PAY</tspan></text>
    </g>
    <rect
       style="opacity:1;fill:#090300;fill-opacity:1;stroke:none;stroke-width:0.48606968;stroke-linecap:square;stroke-linejoin:miter;stroke-miterlimit:4;stroke-dasharray:none;stroke-dashoffset:0;stroke-opacity:1"
       id="rect2988"
       width="86"
       height="12"
       x="91"
       y="271.53329" />
  </g>
</svg>
