<?xml version="1.0" encoding="UTF-8" standalone="no"?>
<!-- Created with Inkscape (http://www.inkscape.org/) -->

<svg
   xmlns:dc="http://purl.org/dc/elements/1.1/"
   xmlns:cc="http://creativecommons.org/ns#"
   xmlns:rdf="http://www.w3.org/1999/02/22-rdf-syntax-ns#"
   xmlns:svg="http://www.w3.org/2000/svg"
   xmlns="http://www.w3.org/2000/svg"
   xmlns:sodipodi="http://sodipodi.sourceforge.net/DTD/sodipodi-0.dtd"
   xmlns:inkscape="http://www.inkscape.org/namespaces/inkscape"
   width="34"
   height="34"
   viewBox="0 0 34 34"
   version="1.1"
   id="svg8"
   inkscape:version="0.92.2 2405546, 2018-03-11"
   sodipodi:docname="ic_launcher.svg"
   inkscape:export-filename="/mnt/files/files/temp/sunflower_en.png"
   inkscape:export-xdpi="4800"
   inkscape:export-ydpi="4800">
  <defs
     id="defs2" />
  <sodipodi:namedview
     id="base"
     pagecolor="#ffffff"
     bordercolor="#666666"
     borderopacity="1.0"
     inkscape:pageopacity="0.0"
     inkscape:pageshadow="2"
     inkscape:zoom="16.000001"
     inkscape:cx="10.957399"
     inkscape:cy="19.288647"
     inkscape:document-units="px"
     inkscape:current-layer="layer1"
     showgrid="true"
     units="px"
     borderlayer="true"
     inkscape:window-width="1920"
     inkscape:window-height="1051"
     inkscape:window-x="0"
     inkscape:window-y="29"
     inkscape:window-maximized="1"
     fit-margin-top="0"
     fit-margin-left="0"
     fit-margin-right="0"
     fit-margin-bottom="0">
    <inkscape:grid
       type="xygrid"
       id="grid815"
       originx="-293.65991"
       originy="-27.966802" />
  </sodipodi:namedview>
  <metadata
     id="metadata5">
    <rdf:RDF>
      <cc:Work
         rdf:about="">
        <dc:format>image/svg+xml</dc:format>
        <dc:type
           rdf:resource="http://purl.org/dc/dcmitype/StillImage" />
        <dc:title />
      </cc:Work>
    </rdf:RDF>
  </metadata>
  <g
     inkscape:label="Layer 1"
     inkscape:groupmode="layer"
     id="layer1"
     transform="translate(-293.65991,-258.56651)">
    <text
       xml:space="preserve"
       style="font-style:normal;font-weight:normal;font-size:40px;line-height:1.25;font-family:sans-serif;letter-spacing:0px;word-spacing:0px;fill:#000000;fill-opacity:1;stroke:none"
       x="282.70703"
       y="303.53333"
       id="text3543"><tspan
         sodipodi:role="line"
         id="tspan3541"
         x="282.70703"
         y="338.92395" /><tspan
         sodipodi:role="line"
         x="282.70703"
         y="388.92395"
         id="tspan3545" /></text>
    <circle
       style="opacity:1;fill:#3c1700;fill-opacity:1;stroke:none;stroke-width:0.125;stroke-linecap:round;stroke-linejoin:miter;stroke-miterlimit:4;stroke-dasharray:none;stroke-dashoffset:0;stroke-opacity:1"
       id="path3852"
       cx="310.70703"
       cy="275.53333"
       r="6" />
    <path
       style="opacity:1;fill:#ff8500;fill-opacity:1;stroke:none;stroke-width:0.125;stroke-linecap:round;stroke-linejoin:round;stroke-miterlimit:4;stroke-dasharray:none;stroke-dashoffset:0;stroke-opacity:1"
       d="m 310.70704,258.56262 c -2.85348,5.63004 -6.75704,10.34666 -11.91602,13.9707 h 5.60157 a 7,7 0 0 1 6.31445,-4 7,7 0 0 1 6.31641,4 h 5.58984 c -5.01557,-3.52582 -8.97142,-8.18849 -11.90625,-13.9707 z m -11.95117,19.9707 c 5.0041,3.50409 9.04412,8.09829 11.95117,13.9707 2.85762,-5.65263 6.77625,-10.35836 11.91992,-13.9707 h -5.60547 a 7,7 0 0 1 -6.31445,4 7,7 0 0 1 -6.31641,-4 z"
       id="path3784"
       inkscape:connector-curvature="0" />
    <path
       style="opacity:1;fill:#ffba00;fill-opacity:1;stroke:none;stroke-width:0.125;stroke-linecap:round;stroke-linejoin:round;stroke-miterlimit:4;stroke-dasharray:none;stroke-dashoffset:0;stroke-opacity:1"
       d="m 304.2129,259.85363 c -0.34128,4.45842 -1.34779,8.69527 -3.10352,12.67969 h 3.28321 a 7,7 0 0 1 6.31445,-4 7,7 0 0 1 6.31641,4 h 6.64453 c 0.82481,-1.1933 1.7269,-2.35917 2.71875,-3.49414 -8.32732,-0.54298 -15.6958,-3.6353 -22.17383,-9.18555 z m -6.46289,18.67969 c -0.82445,1.1925 -1.72875,2.35843 -2.72266,3.49414 8.23138,0.62419 15.68366,3.51127 22.17383,9.18555 0.33751,-4.46983 1.34954,-8.70447 3.10352,-12.67969 h -3.28321 a 7,7 0 0 1 -6.31445,4 7,7 0 0 1 -6.31641,-4 z"
       id="path3786"
       inkscape:connector-curvature="0" />
    <path
       style="opacity:1;fill:#ff6400;fill-opacity:1;stroke:none;stroke-width:0.125;stroke-linecap:round;stroke-linejoin:round;stroke-miterlimit:4;stroke-dasharray:none;stroke-dashoffset:0;stroke-opacity:1"
       d="m 298.7068,263.53331 c 0.97387,2.97557 1.60602,5.97479 1.86523,9 h 3.82032 a 7,7 0 0 1 6.31445,-4 7,7 0 0 1 6.3164,4 h 3.80274 c 0.24293,-2.97821 0.86077,-5.97764 1.88086,-9 -7.90124,2.68507 -15.8911,2.64873 -24,0 z m -2.85352,10.00976 c -0.20978,0 -0.39734,0.0267 -0.56445,0.0801 -0.16711,0.0498 -0.3104,0.12275 -0.42774,0.21875 -0.11733,0.096 -0.20748,0.2129 -0.27148,0.35156 -0.064,0.13511 -0.0957,0.28832 -0.0957,0.45899 0,0.17066 0.0294,0.31661 0.0898,0.4375 0.0605,0.11733 0.13838,0.2174 0.23438,0.30273 0.096,0.0818 0.20528,0.1521 0.32617,0.20899 0.12089,0.0533 0.24239,0.10186 0.36328,0.14453 0.27733,0.0924 0.47216,0.17799 0.58594,0.25976 0.11377,0.0782 0.16992,0.17794 0.16992,0.29883 0,0.0569 -0.008,0.11003 -0.0254,0.15625 -0.0178,0.0462 -0.0495,0.0855 -0.0957,0.1211 -0.0462,0.032 -0.10927,0.0587 -0.1875,0.0801 -0.0747,0.0178 -0.16977,0.0273 -0.2871,0.0273 -0.23467,0 -0.43411,-0.0241 -0.59766,-0.0703 -0.16,-0.0498 -0.29603,-0.10362 -0.40625,-0.16407 l -0.23438,0.66016 c 0.0498,0.0285 0.11053,0.0598 0.18164,0.0918 0.0747,0.032 0.16217,0.0614 0.26172,0.0898 0.10311,0.0284 0.22001,0.0525 0.35157,0.0703 0.13155,0.0213 0.2798,0.0312 0.44336,0.0312 0.48711,0 0.85001,-0.0948 1.09179,-0.2832 0.24178,-0.19201 0.36328,-0.4598 0.36328,-0.80469 0,-0.17778 -0.0241,-0.32868 -0.0703,-0.45313 -0.0462,-0.12444 -0.11689,-0.23372 -0.21289,-0.32617 -0.0924,-0.0924 -0.20934,-0.17072 -0.35156,-0.23828 -0.14222,-0.0711 -0.30996,-0.14373 -0.50196,-0.21484 -0.0924,-0.032 -0.17763,-0.0614 -0.25585,-0.0898 -0.0747,-0.032 -0.14073,-0.066 -0.20118,-0.10156 -0.0569,-0.0391 -0.10276,-0.0827 -0.13476,-0.12891 -0.032,-0.0462 -0.0469,-0.10237 -0.0469,-0.16992 0,-0.11378 0.0416,-0.19667 0.12696,-0.25 0.0889,-0.0569 0.23253,-0.0859 0.43164,-0.0859 0.17777,0 0.33063,0.0218 0.45507,0.0645 0.128,0.0391 0.2426,0.0853 0.34571,0.13867 l 0.24023,-0.65625 c -0.11733,-0.064 -0.26788,-0.12245 -0.44922,-0.17578 -0.18133,-0.0533 -0.39564,-0.0801 -0.64453,-0.0801 z m 17.34961,0 c -0.24533,0 -0.47912,0.0413 -0.70312,0.12305 -0.22045,0.0818 -0.41723,0.20363 -0.58789,0.36719 -0.16711,0.16355 -0.29889,0.36564 -0.39844,0.60742 -0.0996,0.23822 -0.15039,0.51559 -0.15039,0.83203 0,0.31644 0.0485,0.59611 0.14453,0.83789 0.096,0.23822 0.22742,0.43996 0.39453,0.60352 0.16711,0.16 0.36194,0.27955 0.58594,0.36132 0.224,0.0818 0.4624,0.12305 0.71484,0.12305 0.25956,0 0.50256,-0.0413 0.72656,-0.12305 0.22756,-0.0818 0.42239,-0.20132 0.58594,-0.36132 0.16356,-0.16356 0.29232,-0.3653 0.38477,-0.60352 0.096,-0.24178 0.14258,-0.52145 0.14258,-0.83789 0,-0.31644 -0.0466,-0.59381 -0.14258,-0.83203 -0.096,-0.24178 -0.22742,-0.44387 -0.39453,-0.60742 -0.16711,-0.16356 -0.36389,-0.28541 -0.58789,-0.36719 -0.224,-0.0818 -0.4624,-0.12305 -0.71485,-0.12305 z m 11.83985,0.043 c -0.15289,0 -0.32593,0.007 -0.52149,0.0215 -0.192,0.0142 -0.37921,0.0387 -0.56055,0.0742 v 3.64258 h 0.83204 v -1.34961 h 0.41015 c 0.0711,0.0853 0.14373,0.1824 0.21485,0.28906 0.0711,0.10311 0.14178,0.21275 0.21289,0.33008 0.0747,0.11733 0.14533,0.23884 0.21289,0.36328 0.0711,0.12445 0.14143,0.2463 0.20898,0.36719 h 0.93164 c -0.064,-0.13511 -0.13236,-0.27149 -0.20703,-0.41016 -0.0747,-0.14222 -0.1526,-0.27825 -0.23437,-0.40625 -0.0782,-0.13155 -0.15846,-0.25571 -0.24024,-0.37304 -0.0818,-0.12089 -0.15971,-0.22787 -0.23437,-0.32032 0.224,-0.0924 0.39438,-0.2189 0.51172,-0.3789 0.12088,-0.16356 0.18164,-0.37521 0.18164,-0.63477 0,-0.416 -0.14825,-0.72046 -0.44336,-0.91601 -0.29511,-0.19911 -0.72073,-0.29883 -1.27539,-0.29883 z m -27.33399,0.043 v 2.29687 c 0,0.21689 0.029,0.41633 0.0859,0.59766 0.0604,0.17778 0.15059,0.33329 0.27148,0.46484 0.12445,0.128 0.28226,0.23003 0.47071,0.30469 0.18844,0.0711 0.41231,0.10547 0.67187,0.10547 0.26311,0 0.48964,-0.0344 0.68164,-0.10547 0.192,-0.0711 0.35017,-0.17083 0.47461,-0.29883 0.12444,-0.13155 0.2169,-0.28936 0.27734,-0.4707 0.0605,-0.18133 0.0918,-0.38077 0.0918,-0.59766 v -2.29687 h -0.83203 v 2.22852 c 0,0.29866 -0.0654,0.51032 -0.19336,0.63476 -0.12444,0.12445 -0.28757,0.1875 -0.49023,0.1875 -0.0996,0 -0.19201,-0.0145 -0.27735,-0.043 -0.0818,-0.0284 -0.15244,-0.0747 -0.21289,-0.13867 -0.0569,-0.0676 -0.10311,-0.15275 -0.13867,-0.25586 -0.032,-0.10667 -0.0488,-0.23543 -0.0488,-0.38477 v -2.22851 z m 3.82422,0 v 3.69531 h 0.82227 v -2.42187 c 0.31288,0.36622 0.60743,0.75552 0.88476,1.16797 0.27733,0.41244 0.53522,0.83079 0.77344,1.2539 h 0.69922 v -3.69531 h -0.82617 v 2.17969 c -0.128,-0.192 -0.26634,-0.38948 -0.41211,-0.59571 -0.14578,-0.20977 -0.29208,-0.41151 -0.44141,-0.60351 -0.14578,-0.19556 -0.28942,-0.37816 -0.43164,-0.54883 -0.14222,-0.17067 -0.27329,-0.31431 -0.39063,-0.43164 z m 4.03125,0 v 3.69531 h 0.83203 v -1.52539 h 1.46289 v -0.69922 h -1.46289 v -0.77343 h 1.64258 v -0.69727 z m 3.0625,0 v 3.69531 h 2.4707 v -0.71484 h -1.63867 v -2.98047 z m 6.73242,0 c 0.12445,0.61867 0.26774,1.24637 0.42774,1.88281 0.16355,0.63645 0.3389,1.24006 0.52734,1.8125 h 0.76367 c 0.12445,-0.34133 0.24169,-0.69893 0.35547,-1.07226 l 0.3418,-1.13086 c 0.11378,0.37689 0.23032,0.75397 0.34765,1.13086 0.11734,0.37333 0.23689,0.73093 0.36133,1.07226 h 0.76367 c 0.18845,-0.57244 0.36344,-1.17605 0.52344,-1.8125 0.16356,-0.63644 0.3072,-1.26414 0.43164,-1.88281 h -0.86523 c -0.0356,0.20978 -0.0745,0.42674 -0.11719,0.6543 -0.0391,0.224 -0.0804,0.45018 -0.12305,0.67773 -0.0427,0.22756 -0.0889,0.44878 -0.13867,0.66211 -0.0462,0.21333 -0.0925,0.41046 -0.13867,0.5918 -0.0569,-0.16711 -0.11534,-0.34937 -0.17578,-0.54492 l -0.18164,-0.58594 c -0.0569,-0.19556 -0.11073,-0.38312 -0.16406,-0.56446 -0.0498,-0.18488 -0.096,-0.35031 -0.13868,-0.49609 h -0.70898 c -0.0391,0.14222 -0.085,0.30304 -0.13477,0.48438 -0.0462,0.18133 -0.0974,0.37085 -0.15429,0.5664 -0.0569,0.19556 -0.11534,0.39038 -0.17578,0.58594 -0.0604,0.19556 -0.12155,0.38046 -0.18555,0.55469 -0.0498,-0.18134 -0.10061,-0.37847 -0.15039,-0.5918 -0.0462,-0.21333 -0.0924,-0.43455 -0.13867,-0.66211 -0.0462,-0.22755 -0.0901,-0.45373 -0.13282,-0.67773 -0.0427,-0.22756 -0.0816,-0.44452 -0.11718,-0.6543 z m 5.37305,0 v 3.69531 h 2.61914 v -0.69922 h -1.78711 v -0.89062 h 1.47656 v -0.68164 h -1.47656 v -0.72656 h 1.66406 v -0.69727 z m -7.5293,0.64453 c 0.15289,0 0.29122,0.029 0.41211,0.0859 0.12445,0.0569 0.22682,0.13748 0.3086,0.24414 0.0853,0.10311 0.14873,0.22957 0.1914,0.37891 0.0462,0.14577 0.0703,0.3089 0.0703,0.49023 0,0.18133 -0.0241,0.34641 -0.0703,0.49219 -0.0427,0.14578 -0.10607,0.27029 -0.1914,0.37695 -0.0818,0.10311 -0.18415,0.18335 -0.3086,0.24024 -0.12089,0.0569 -0.25922,0.0859 -0.41211,0.0859 -0.15644,0 -0.29512,-0.029 -0.41601,-0.0859 -0.12089,-0.0569 -0.22326,-0.13713 -0.3086,-0.24024 -0.0818,-0.10666 -0.14518,-0.23117 -0.1914,-0.37695 -0.0427,-0.14578 -0.0645,-0.31086 -0.0645,-0.49219 0,-0.17778 0.0218,-0.3386 0.0645,-0.48437 0.0462,-0.14934 0.10962,-0.2758 0.1914,-0.37891 0.0853,-0.10667 0.18771,-0.1892 0.3086,-0.24609 0.12089,-0.0604 0.25957,-0.0898 0.41601,-0.0898 z m 11.88867,0.0215 c 0.26667,0 0.46841,0.039 0.60352,0.11719 0.13867,0.0747 0.20703,0.20343 0.20703,0.38476 0,0.18845 -0.068,0.32022 -0.20312,0.39844 -0.13512,0.0782 -0.35899,0.11719 -0.67188,0.11719 h -0.23437 v -1.00195 c 0.0427,-0.004 0.0866,-0.006 0.13281,-0.01 0.0498,-0.004 0.10557,-0.006 0.16601,-0.006 z m -24.50586,4.23829 c -0.24145,2.97341 -0.85462,5.97221 -1.8789,9 7.84367,-2.57334 15.83241,-2.75868 24,0 -0.97863,-2.97971 -1.60964,-5.97932 -1.86719,-9 h -3.81836 a 7,7 0 0 1 -6.31445,4 7,7 0 0 1 -6.31641,-4 z"
       id="path3788"
       inkscape:connector-curvature="0" />
    <path
       style="opacity:1;fill:#ffcc00;fill-opacity:1;stroke:none;stroke-width:0.125;stroke-linecap:round;stroke-linejoin:round;stroke-miterlimit:4;stroke-dasharray:none;stroke-dashoffset:0;stroke-opacity:1"
       d="m 317.20118,259.85363 c -6.27226,5.50436 -13.66856,8.52951 -22.17383,9.18555 0.96882,1.12943 1.86764,2.29442 2.69531,3.49414 h 6.66993 a 7,7 0 0 1 6.31445,-4 7,7 0 0 1 6.31641,4 h 3.28906 c -1.73696,-3.88867 -2.80327,-8.10175 -3.11133,-12.67969 z m -16.09961,18.67969 c 1.73484,3.87883 2.80565,8.08913 3.11133,12.67969 6.26183,-5.37909 13.57225,-8.60863 22.17383,-9.18555 -0.97095,-1.12956 -1.87,-2.29527 -2.69727,-3.49414 h -6.66797 a 7,7 0 0 1 -6.31445,4 7,7 0 0 1 -6.31641,-4 z"
       id="path3790"
       inkscape:connector-curvature="0" />
  </g>
</svg>
